CCI-JLC Exploratory Data Analysis (EDA)
…
The site feature only contains Rockford (ROCK) entries. This feature is likely meaningless for future analysis, unless transaction data combines multiple locations.

Questions:

Will transaction data sets ever contain multiple locations?

Do the different facilities of JLC have similar operations, or are they completely unique?

Is there a feature in Syteline that distinguishes between departments/line operation? (“job column -> FAB significance”)

JLC variable description:

Feature 02 | trans_num

## # A tibble: 10,000 x 2
##    trans_num     n
##    <fct>     <int>
##  1 1376545       1
##  2 1376546       1
##  3 1376547       1
##  4 1376548       1
##  5 1376549       1
##  6 1376550       1
##  7 1376551       1
##  8 1376552       1
##  9 1376553       1
## 10 1376554       1
## # ... with 9,990 more rows
Observations:

It looks like our 2nd feature, trans_num, is unique in each row of the dataset. This means that each row in the dataset likely represents a unique transaction at the Rockford facility.

Questions:

What defines a transaction in the context of this dataset?

How are transactions recorded into the system? Human-inputted?

JLC variable description:

Feature 03 | job

## # A tibble: 616 x 2
##    job            n
##    <fct>      <int>
##  1 NULL        2917
##  2 FAB0001772   237
##  3 FAB0001795   116
##  4 6213496       94
##  5 FAB0001940    93
##  6 FAB0001797    84
##  7 FAB0001798    74
##  8 FAB0001777    69
##  9 6213546       62
## 10 FAB0001796    59
## # ... with 606 more rows
…
Observations:

trans_type categories are: I, M, R, C, S; trans_type “I” being the most common. Will need more clarification on the meaning of trans_type.

Questions:

Need clarification on trans_type meaning/significance.

JLC variable description:

Feature 06, 07, 08 | trans_date_time, trans_date, trans_time

## # A tibble: 74 x 2
##    dat            n
##    <chr>      <int>
##  1 08/14/2019   635
##  2 07/23/2019   626
##  3 08/05/2019   571
##  4 07/02/2019   503
##  5 07/22/2019   493
##  6 08/29/2019   474
##  7 08/22/2019   466
##  8 07/03/2019   422
##  9 10/17/2019   368
## 10 08/13/2019   344
## # ... with 64 more rows
…
## # A tibble: 24 x 2
##    time      n
##    <chr> <int>
##  1 07     1369
##  2 00     1289
##  3 15     1006
##  4 23      724
##  5 06      675
##  6 05      455
##  7 16      405
##  8 08      393
##  9 10      386
## 10 13      365
## # ... with 14 more rows
…
Questions:

What are some factors that influence transaction frequency per day? Weekends? Equipment Down? Actual Demand?

Why are there frequent gaps in transaction dates (see visual)? How accurate are the transaction dates? Are values scanned as the process flows, or all at the end?

When do shifts start and end?

How do these dates and times relate to RecordDate and CreateDate features?

JLC variable description:

Feature 09 | qty_complete

## # A tibble: 1,675 x 2
##    qty_complete     n
##           <dbl> <int>
##  1            0  6782
##  2        14000   155
##  3         1296   106
##  4        21760    50
##  5            1    48
##  6        15120    43
##  7        18360    43
##  8        20400    37
##  9         1760    35
## 10        60480    33
## # ... with 1,665 more rows
…
Need further clarification.

Do certain transactions produce certain qty_complete values?

What is the unit of measurement for qty_complete?

Are qty_complete values given only to transactions that complete a “job”?

What does a negative qty_complete value mean?

JLC variable description:

Feature 10 | qty_scrapped

## # A tibble: 326 x 2
##    qty_scrapped     n
##           <int> <int>
##  1            0  8438
##  2            1    79
##  3            2    71
##  4          100    64
##  5           50    52
##  6          200    49
##  7            3    42
##  8           10    37
##  9           20    36
## 10            4    31
## # ... with 316 more rows
…
Observations:

This is a lot of different oper_num’s - assuming that each one represents a different operator. There is also a possibility that oper_num has to do with a specific operation, as opposed to a human operator - but this will require further follow-up to determine. 0 is the most common oper_num. Excluding 0, the most common oper_num is 20.

Questions:

Need further clarification.

What is the significance of oper_num 991? Other numbers are multiples of 10.

JLC variable description:

Feature 12 | a_hrs

## # A tibble: 699 x 2
##     a_hrs     n
##     <dbl> <int>
##  1  0      2345
##  2  0.017   153
##  3  0.2     124
##  4  8        78
##  5  0.3      76
##  6  8.05     73
##  7  8.03     72
##  8  0.1      66
##  9 -0.2      62
## 10  8.07     58
## # ... with 689 more rows
…
Most of the transactions in the dataset have a value of NULL for next_oper, second being 991, and there are many transactions with other values. Similar, if not identical categories to oper_num except for 0. next_oper appears to be the action immediately following oper_num. 991 could be the final state of operation (confirmation needed).

Questions:

Confirm the relationship between oper_num and next_oper. Are oper_num and next_oper people or actions?

Does 991 signify the end of something?

What about NULL?

JLC variable description:

Feature 14 | emp_num

## # A tibble: 236 x 2
##    emp_num     n
##    <chr>   <int>
##  1 NULL     2528
##  2 26511     324
##  3 10396     202
##  4 33303     181
##  5 33383     172
##  6 C000083   172
##  7 16783     169
##  8 C000082   162
##  9 C000051   158
## 10 C000081   150
## # ... with 226 more rows
…
The emp_num feature has lots of NULL values, some type of numerical coding systems, as well as prefixes (i.e “C”) attached to it’s numerics.

Questions:

Further clarification needed.

What is the significance of the coded values?

Whay are there a large amount of NULL values?

JLC variable description:

Feature 15 | a_$

## # A tibble: 3,109 x 2
##      `a_$`     n
##      <dbl> <int>
##  1  NA      4131
##  2   0       486
##  3   4.61     41
##  4  -5.41     32
##  5   0.391    29
##  6  -5.26     23
##  7   3.83     17
##  8 129.       13
##  9 217.       12
## 10 -46.1      11
## # ... with 3,099 more rows
…
Questions:

Further clarification needed.

Is this some type of costing measure? If so, need more context.

Why are there a large amount of NULL? If this is indeed a costing feature, NULL are problematic.

What is the significance of the negative values?

JLC variable description:

Feature 16 | start_time

## # A tibble: 1,180 x 2
##    start_time     n
##    <chr>      <int>
##  1 NULL        2885
##  2 25500         86
##  3 25560         80
##  4 82620         69
##  5 25200         68
##  6 54300         67
##  7 82560         65
##  8 24960         61
##  9 53940         61
## 10 25080         60
## # ... with 1,170 more rows
…
The most common value for start time is NULL. The histogram shows an interesting pattern that is trimodal in nature (3 high frequency peaks). This pattern is strikingly similar to feature 8 trans_time. There could be some relationship between the 2 variables.

Questions:

How does start_time relate to end_time?

How does start_time relate to trans_time?

What do the values represent? Should they be formatted HH:MM:SS?

JLC variable description:

Feature 17 | end_time

## # A tibble: 1,179 x 2
##    end_time     n
##    <chr>    <int>
##  1 NULL      2885
##  2 53700      185
##  3 53760      168
##  4 53880      154
##  5 53820      148
##  6 54000      129
##  7 53640      125
##  8 53940      121
##  9 82500      108
## 10 25200       95
## # ... with 1,169 more rows
…
Observations:

The most common value for end time is NULL. Again, the trimodal pattern emerges, similar to start_time, at relatively similar values.

Questions:

What is the relationship between start_time and end_time?

What does the formatting represent?

JLC variable description:

Feature 18 | ind_code

## # A tibble: 25 x 2
##    ind_code     n
##    <chr>    <int>
##  1 NULL      7083
##  2 1          802
##  3 4          455
##  4 5          229
##  5 177        205
##  6 16         181
##  7 38         151
##  8 169        112
##  9 2          108
## 10 28          94
## # ... with 15 more rows
…
This feature appears to have no explanatory variable. There are only 2 levels to the pay_rate feature, and one of those levels is NULL. Recommend ignoring or deleting this feature from the dataset as it likely provides no explanatory power for any other feature.

Questions:

Pay rate for operators or for customers?

What does “R” mean? Regular? What about NULL?

Could there be more values (other than R) if we expanded the dataset?

JLC variable description:

Feature 20 | qty_moved

## # A tibble: 1,675 x 2
##    qty_moved     n
##        <dbl> <int>
##  1         0  6783
##  2     14000   155
##  3      1296   106
##  4     21760    50
##  5         1    48
##  6     15120    43
##  7     18360    43
##  8     20400    37
##  9      1760    35
## 10     60480    33
## # ... with 1,665 more rows
…
Observations:

Most complete_op values = 0, however 11 out of the total 10,000 transactions have a value = 1.

Questions:

Need more clarification.

Likely an irrelevant variable with only 11 observations differntiating from 0.

JLC variable description:

Feature 28 | pr_rate

## # A tibble: 47 x 2
##    pr_rate     n
##    <chr>   <int>
##  1 NULL     4470
##  2 23.267    454
##  3 19.209    441
##  4 41.5      385
##  5 47.03     324
##  6 19.161    259
##  7 26.28     256
##  8 23.027    247
##  9 79.08     246
## 10 79.58     214
## # ... with 37 more rows
…
Observations:

Most transactions have a NULL value for pr_rate. However, there are many instances of non-nULL values for pr_rate. Values range from 0 to 100, with the distribution concentrated around 25. Seemingly a costing feature of some kind, we should consider how this feature is derived and how it relates to other features.

Questions:

Will need to follow up on the meaning of the pr_rate feature.

Identical to job_rate feature?

JLC variable description:

Feature 29 | job_rate

## # A tibble: 46 x 2
##    job_rate     n
##    <chr>    <int>
##  1 NULL      4470
##  2 19.161     669
##  3 23.027     555
##  4 41.5       385
##  5 27.056     347
##  6 47.03      324
##  7 17.174     254
##  8 79.08      245
##  9 79.58      214
## 10 31.507     209
## # ... with 36 more rows
…
Observations:

All transactions have backflush = 0. Consider deleting or ignorning this variable unless additional context is given.

Questions:

Verify Relevancy and utilization.

JLC variable description:

Feature 34 | reason_code

## # A tibble: 62 x 2
##    reason_code     n
##    <chr>       <int>
##  1 NULL         8439
##  2 P11           285
##  3 130           176
##  4 131           173
##  5 F01           149
##  6 109           138
##  7 306            67
##  8 F03            52
##  9 P02            50
## 10 96             48
## # ... with 52 more rows
…
Observations:

All transactions have ps_num = NULL. Consider deleting or ignorning this variable unless additional context is given.

Questions:

Verify Relevancy and utilization.

JLC variable description:

Feature 37 | wc

## # A tibble: 114 x 2
##    wc        n
##    <chr> <int>
##  1 NULL   2927
##  2 STRAP   916
##  3 C8      424
##  4 C5      401
##  5 PPACK   345
##  6 C5A     338
##  7 MPACK   337
##  8 C8A     299
##  9 WAX     285
## 10 P10A1   236
## # ... with 104 more rows
…
Observations:

Every transaction has a awaiting_eop value = 0. Consider deleting or ignorning this variable unless additional context is given.

Questions:

Verify Relevancy and utilization.

JLC variable description:

Feature 39 | fixovhd

## # A tibble: 1,863 x 2
##    fixovhd     n
##      <dbl> <int>
##  1    0     7059
##  2    0.28    28
##  3    0.8     25
##  4    3.3     25
##  5    3.43    18
##  6  -49.5     11
##  7  -33.0     11
##  8  750.      11
##  9    0.66    10
## 10    4.95    10
## # ... with 1,853 more rows
…
Observations:

All transactions have recordate NoteExistsFlag* = 0. Suspect this is a flag that indicates if a comment has been made for this transaction. Apparently underutilized feature. Consider deleting or ignorning this variable unless additional context is given.

Questions:

Verify Relevancy and utilization.

JLC variable description:

Feature 44, 45, 46 | RecordDateTime, RecordDate, RecordTime

## # A tibble: 45 x 2
##    dat            n
##    <chr>      <int>
##  1 08/14/2019   643
##  2 07/23/2019   642
##  3 08/05/2019   577
##  4 07/22/2019   497
##  5 07/02/2019   493
##  6 08/29/2019   472
##  7 07/03/2019   468
##  8 08/22/2019   422
##  9 08/15/2019   413
## 10 10/17/2019   359
## # ... with 35 more rows
…
## # A tibble: 24 x 2
##    time      n
##    <chr> <int>
##  1 15     1808
##  2 07     1160
##  3 23     1131
##  4 13      511
##  5 08      476
##  6 10      462
##  7 09      437
##  8 12      417
##  9 16      392
## 10 14      382
## # ... with 14 more rows
…
Observations:

RecordDate and RecordTime display similar patterns to trans_date and trans_time, but not exactly identical. Explore relationship further.

Questions:

Investigate time feature variables and how they relate to one another within the scope of each transaction.

JLC variable description:

Feature 47 | RowPointer

## # A tibble: 10,000 x 2
##    RowPointer                               n
##    <chr>                                <int>
##  1 0003BFD0-8797-4DA9-A964-2141D6308062     1
##  2 001660D7-8BA7-41D5-9D4A-61F01C6E3FEC     1
##  3 00169E53-54C5-4E10-B06B-D315786D1174     1
##  4 00172EAD-26A3-4400-BBDD-735C7EA06F8A     1
##  5 0017FE4E-D4FA-48C7-8274-1F784460A140     1
##  6 001A47BF-7F63-408D-87AA-8BC7E8E222A3     1
##  7 001CFD83-9F2B-41D6-B631-1E6963191F29     1
##  8 0028445C-E605-4E1B-9C9D-3396C19F4B5E     1
##  9 00372762-CB29-473F-8DF4-EFBA3F4B3560     1
## 10 00427E26-0AA4-4752-904A-0A4F4462A29C     1
## # ... with 9,990 more rows
Observations:

The RowPointer feature has no discernable pattern other than dash marks (" - ") placed at regular intervals throughout each value. A unique identifier of some sort.

Questions:

Would splitting these strings up (possibly at the “-”) create some features with meaning? The only bit of consistency comes from the number of places between each “-” mark.

Further clarification needed.

JLC variable description:

Feature 48 | CreatedBy

## # A tibble: 94 x 2
##    CreatedBy                    n
##    <chr>                    <int>
##  1 "JLCLARKNT\\JLW-DB1-RK$"  6056
##  2 sa                        1037
##  3 jgraham                    644
##  4 $service                   490
##  5 dsiebold                   247
##  6 InforWM                    153
##  7 pjohnson                   132
##  8 agantz                     116
##  9 bsheets                     62
## 10 fjohnson                    59
## # ... with 84 more rows
…
It appears that CreatedBy and UpdatedBy are related in some fashion, having similar factor levels. In fact, UpdatedBy levels all occur in CreatedBy, however there are much fewer here. “sa” is the most frequent “user”.

Questions:

How does CreatedBy relate to UpdatedBy?

How are “users” tracked?

Need further clarification.

JLC variable description:

Feature 50, 51, 52 | CreateDateTime, CreateDate, CreateTime

## # A tibble: 45 x 2
##    dat            n
##    <chr>      <int>
##  1 07/23/2019   644
##  2 08/14/2019   643
##  3 08/05/2019   577
##  4 07/22/2019   497
##  5 07/02/2019   493
##  6 08/29/2019   470
##  7 07/03/2019   468
##  8 08/22/2019   423
##  9 08/15/2019   413
## 10 10/17/2019   359
## # ... with 35 more rows
…
## # A tibble: 24 x 2
##    time      n
##    <chr> <int>
##  1 15     1805
##  2 07     1157
##  3 23     1128
##  4 13      515
##  5 08      499
##  6 10      472
##  7 09      416
##  8 12      404
##  9 16      394
## 10 14      389
## # ... with 14 more rows
…
