CCI-JLC Exploratory Data Analysis (EDA)
…
107

is_external

1

G4

Group 1 Detail

Note: All time related features will be analyzed in its own section. Again Group 1 features have over 100 unique values.

Feature 03 | job

## # A tibble: 7,644 x 2
##    job            n
##    <fct>      <int>
##  1 6207759        3
##  2 FAB0001277     3
##  3 FAB0001279     3
##  4 FAB0001280     3
##  5 FAB0001420     3
##  6 100            2
##  7 1000           2
##  8 1001           2
##  9 1002           2
## 10 1003           2
## # ... with 7,634 more rows
…
Questions:

Need clarification on these codified values (i.e “FAB”).

Why are there duplicate job entries?

Values appear to accend in numerical order?

How does job relate to type?

Job numbers don’t seem to duplicate as often as in transaction dataset.

Feature 10 | ord_num

## # A tibble: 1,740 x 2
##    ord_num     n
##    <chr>   <int>
##  1 NULL     6835
##  2 63119      83
##  3 63434      51
##  4 57761      32
##  5 58422      24
##  6 56965      19
##  7 62136      17
##  8 62442      17
##  9 63065      14
## 10 61732      13
## # ... with 1,730 more rows
…
Observations:

Mix of “NULL”, integer and mixed character-integer values in the ord_num feature. Numerical prefixes “F0006”, “R0006”, “REP” in front of a very few numbers. “NULL” is the most common value. 1740 unique values.

Questions:

What is the significance of ord_num?

Need further clarification. How does ord_num relate to job, cust_num, ord_type, and other related features?

Feature 15 | item

## # A tibble: 2,645 x 2
##    item               n
##    <chr>          <int>
##  1 1900275           97
##  2 1134773           58
##  3 8888478SH.0094    48
##  4 8888195SH.0067    46
##  5 1101040           41
##  6 1900740CU         41
##  7 1900770           34
##  8 8888478SH.0122    32
##  9 1101040CU         30
## 10 8888478SH.0119    29
## # ... with 2,635 more rows
…
Questions:

What is the significance of item?

Need to decode the underlying structure of this feature.

Feature 16 | qty_released

Table

##    Min. 1st Qu.  Median    Mean 3rd Qu.    Max. 
##       0       1     250   17222    4400 2000000

## # A tibble: 1,313 x 2
##    qty_released     n
##           <dbl> <int>
##  1            1  4808
##  2        21840   340
##  3          500   217
##  4         1000   176
##  5        15000   155
##  6          250   128
##  7         1400    94
##  8         2000    94
##  9        10000    92
## 10         1500    91
## # ... with 1,303 more rows
…
Questions:

Need further clarification. While this represents some quantity of material, we don’t know exactly where this fits in the production process.

As values are repeated, could qty_released be related to a specific job/order?

Feature 17 | qty_complete

Table

##    Min. 1st Qu.  Median    Mean 3rd Qu.    Max. 
##       0       0       0   14937    3362 1800000

## # A tibble: 3,774 x 2
##    qty_complete     n
##           <int> <int>
##  1            0  5134
##  2         1000    22
##  3         2000    21
##  4         3000    11
##  5          200    10
##  6          600    10
##  7       576000     9
##  8          500     8
##  9          100     7
## 10       652800     7
## # ... with 3,764 more rows
…
Observations:

No NULL values. The most frequent qty_completed value is “0” (most frequent by a large amount), with 1000 being the second most frequent. It’s worth noting that most qty_complete values are not repeated a significant number of times (less than), which indicates a certain uniqueness. Observed nature of qty_complete as per the histogram(s) is the frequency decreases the larger the value (even with 1’s being removed). The exact definition of qty_complete is still unknown.

Questions:

Need further clarification. While this represents some quantity of material, we don’t know exactly where this fits in the production process.

As values are repeated, could qty_complete be related to a specific job/order?

Feature 18 | qty_scrapped

Table

## # A tibble: 1,108 x 2
##    qty_scrapped     n
##           <dbl> <int>
##  1            0  5419
##  2            6    37
##  3           34    37
##  4           30    35
##  5           31    34
##  6            9    32
##  7           14    31
##  8            8    30
##  9           11    30
## 10           16    30
## # ... with 1,098 more rows
…
Observations:

No NULL values. The most frequent qty_scrapped value is “0” (most frequent by a large amount), with 34 being the second most frequent. It’s worth noting that most qty_scrapped that only 48% of the values in this feature are unique. Observed nature of qty_scrapped as per the histogram(s) is the frequency decreases the larger the scrapped value (even with 1’s being removed). The exact definition of qty_scrapped is still unknown.

Questions:

Need further clarification. While this represents some quantity of material, we don’t know exactly where this fits in the production process.

As values are repeated, could qty_scrapped be related to a specific job/order?

Feature 23 | root_job

Table 1

## # A tibble: 6,564 x 4
##    root_job       n total percent
##    <chr>      <int> <int> <chr>  
##  1 NULL        3419 10000 34%    
##  2 6207759        3 10000 0%     
##  3 FAB0001277     3 10000 0%     
##  4 FAB0001279     3 10000 0%     
##  5 FAB0001280     3 10000 0%     
##  6 FAB0001420     3 10000 0%     
##  7 6207760        2 10000 0%     
##  8 FAB0001414     2 10000 0%     
##  9 FAB0001415     2 10000 0%     
## 10 FAB0001416     2 10000 0%     
## # ... with 6,554 more rows
…
Need further clarification.

Does root_job indicate the job immediately preceeding any repsective line item?

Does NULL indicate that a job line is original?

Feature 32 | wip_total

Table

##    Min. 1st Qu.  Median    Mean 3rd Qu.    Max. 
##       0       0       0    7014    6002  323530

## # A tibble: 4,782 x 4
##    wip_total     n total percent
##        <dbl> <int> <int> <chr>  
##  1       0    5131 10000 52%    
##  2      80.8    10 10000 0%     
##  3     162.      6 10000 0%     
##  4      10.7     5 10000 0%     
##  5     268.      4 10000 0%     
##  6   37921       4 10000 0%     
##  7     133.      3 10000 0%     
##  8     173.      3 10000 0%     
##  9     259.      3 10000 0%     
## 10    3352.      3 10000 0%     
## # ... with 4,772 more rows
…
Questions:

Need further clarification.

What does wip_total represent? does it represent some material length?

Feature 33 | wip_complete

Table 1

##    Min. 1st Qu.  Median    Mean 3rd Qu.    Max. 
##       0       0       0    7014    6002  323530

## # A tibble: 4,782 x 4
##    wip_complete     n total percent
##           <dbl> <int> <int> <chr>  
##  1          0    5131 10000 52%    
##  2         80.8    10 10000 0%     
##  3        162.      6 10000 0%     
##  4         10.7     5 10000 0%     
##  5        268.      4 10000 0%     
##  6      37921       4 10000 0%     
##  7        133.      3 10000 0%     
##  8        173.      3 10000 0%     
##  9        259.      3 10000 0%     
## 10       3352.      3 10000 0%     
## # ... with 4,772 more rows
…
Need further clarification.

What does wip_complete represent? Does it represent some material length?

Why are the values identical to wip_total

Feature 44 | wip_matl_total

Table

##      Min.   1st Qu.    Median      Mean   3rd Qu.      Max. 
##     -0.44      0.00      0.00   4279.28   2712.40 311920.04

## # A tibble: 4,463 x 4
##    wip_matl_total     n total percent
##             <dbl> <int> <int> <chr>  
##  1            0    5425 10000 54%    
##  2           80.8    10 10000 0%     
##  3          162.      6 10000 0%     
##  4           10.7     5 10000 0%     
##  5          268.      4 10000 0%     
##  6         1105.      4 10000 0%     
##  7        13027.      4 10000 0%     
##  8          133.      3 10000 0%     
##  9          173.      3 10000 0%     
## 10          259.      3 10000 0%     
## # ... with 4,453 more rows
…
Questions:

Need further clarification.

Unclear as to what wip_matl_total means? Work in progress material total?

Feature 45 | wip_lbr_total

Table

##    Min. 1st Qu.  Median    Mean 3rd Qu.    Max. 
##     0.0     0.0     0.0   422.4   482.0 11587.0

## # A tibble: 4,613 x 4
##    wip_lbr_total     n total percent
##            <dbl> <int> <int> <chr>  
##  1            0   5266 10000 52%    
##  2         1376.     8 10000 0%     
##  3         1952.     7 10000 0%     
##  4         1643      5 10000 0%     
##  5         2737.     5 10000 0%     
##  6          136.     4 10000 0%     
##  7          408.     4 10000 0%     
##  8         1020.     4 10000 0%     
##  9          298.     3 10000 0%     
## 10          373.     3 10000 0%     
## # ... with 4,603 more rows
…
Need further clarification.

Unclear what wip_lbr_total represents.

What is the difference between this “wip…”, and others in the dataset?

Feature 46 | wip_fovhd_total

Table

##    Min. 1st Qu.  Median    Mean 3rd Qu.    Max. 
##       0       0       0    2313    2373   57130

## # A tibble: 4,644 x 4
##    wip_fovhd_total     n total percent
##              <dbl> <int> <int> <chr>  
##  1              0   5271 10000 52%    
##  2           7038.     7 10000 0%     
##  3           9968.     7 10000 0%     
##  4           2673.     5 10000 0%     
##  5           2978.     5 10000 0%     
##  6          16827      5 10000 0%     
##  7           2041.     4 10000 0%     
##  8           2154.     4 10000 0%     
##  9            201.     3 10000 0%     
## 10           1520.     3 10000 0%     
## # ... with 4,634 more rows
…
Need further clarification.

Unclear what wip_fovhd_total represents.

What is the difference between this “wip…”, and others in the dataset?

Feature 49 | wip_matl_comp

Table

##      Min.   1st Qu.    Median      Mean   3rd Qu.      Max. 
##     -0.44      0.00      0.00   4279.28   2712.40 311920.04

## # A tibble: 4,463 x 4
##    wip_matl_comp     n total percent
##            <dbl> <int> <int> <chr>  
##  1           0    5425 10000 54%    
##  2          80.8    10 10000 0%     
##  3         162.      6 10000 0%     
##  4          10.7     5 10000 0%     
##  5         268.      4 10000 0%     
##  6        1105.      4 10000 0%     
##  7       13027.      4 10000 0%     
##  8         133.      3 10000 0%     
##  9         173.      3 10000 0%     
## 10         259.      3 10000 0%     
## # ... with 4,453 more rows
…
Need further clarification.

Unclear what wip_matl_comp represents. Wip material complete?

What is the difference between this “wip…”, and others in the dataset?

Feature 50 | wip_lbr_comp

Table

##    Min. 1st Qu.  Median    Mean 3rd Qu.    Max. 
##     0.0     0.0     0.0   422.4   482.0 11587.0

## # A tibble: 4,613 x 4
##    wip_lbr_comp     n total percent
##           <dbl> <int> <int> <chr>  
##  1           0   5266 10000 52%    
##  2        1376.     8 10000 0%     
##  3        1952.     7 10000 0%     
##  4        1643      5 10000 0%     
##  5        2737.     5 10000 0%     
##  6         136.     4 10000 0%     
##  7         408.     4 10000 0%     
##  8        1020.     4 10000 0%     
##  9         298.     3 10000 0%     
## 10         373.     3 10000 0%     
## # ... with 4,603 more rows
…
Unclear what wip_lbr_comp represents.

What is the difference between this “wip…”, and others in the dataset?

Why are there highly similar wip features such as wip_lbr_comp and wip_lbr_total? Whats the difference?

Feature 51 | wip_fovhd_comp

Table

##    Min. 1st Qu.  Median    Mean 3rd Qu.    Max. 
##       0       0       0    2313    2373   57130

## # A tibble: 4,644 x 4
##    wip_fovhd_comp     n total percent
##             <dbl> <int> <int> <chr>  
##  1             0   5271 10000 52%    
##  2          7038.     7 10000 0%     
##  3          9968.     7 10000 0%     
##  4          2673.     5 10000 0%     
##  5          2978.     5 10000 0%     
##  6         16827      5 10000 0%     
##  7          2041.     4 10000 0%     
##  8          2154.     4 10000 0%     
##  9           201.     3 10000 0%     
## 10          1520.     3 10000 0%     
## # ... with 4,634 more rows
…
Similar to other histogram distributions, as wip_fovhd_comp increases, frequency decreases. The most common value other than 0 is 7038.50, which only occurs 7 times. Again, this feature is quite similar in values to wip_fovhd_total.

Questions:

Need further clarification.

Unclear what wip_fovhd_comp represents.

What is the difference between this “wip…”, and others in the dataset?

Why are there highly similar wip features such as wip_fovhd_comp and wip_fovhd_total? Whats the difference?

Feature 86 | RowPointer

## # A tibble: 10,000 x 2
##    RowPointer                               n
##    <chr>                                <int>
##  1 0000AA39-D4E5-42B5-87DC-873227AC5E82     1
##  2 0002E589-8B5E-4623-B978-6FDE201D9821     1
##  3 000CD882-01C1-4371-87ED-793A4B9ACC14     1
##  4 0014674B-39CA-4BA0-8896-3383CD1718B4     1
##  5 0015DC7A-E5C3-4919-A85D-8D8C9878BF84     1
##  6 001A0A12-E842-4F1E-8E33-F1B940D2C266     1
##  7 001EF991-A815-4207-8EA7-7D7DC0BB68DB     1
##  8 002008E6-10A8-4583-B3D7-B94D836542A6     1
##  9 0028B5A9-7952-4955-AC3F-28282D229540     1
## 10 00317E55-F4DD-4ACB-9AB2-A42368193A25     1
## # ... with 9,990 more rows
Observations:

The RowPointer feature has no discernable pattern other than dash marks (" - ") placed at regular intervals throughout each value. A unique identifier of some sort.

Questions:

Would splitting these strings up (possibly at the “-”) create some features with meaning? The only bit of consistency comes from the number of places between each “-” mark.

Further clarification needed.

Feature 87 | description

Table

## # A tibble: 1,417 x 2
##    description                         n
##    <chr>                           <int>
##  1 NULL                             4808
##  2 65 ETP 3305X28.230 DR8 NOT CTD     95
##  3 215321 COPEN LC V2 FDA             74
##  4 073 5/20 3409 X 2809 T2            56
##  5 214762 S FC WG FDA                 50
##  6 9V Duralock Power Preserve 2018    44
##  7 075 .25 3302 X 3012 T2             41
##  8 GOLD INT WIP 27.674X35.719 AL      41
##  9 214728 COPEN LC WG FDA             40
## 10 070 25/25 3207 X 32.872 DR8 CA     32
## # ... with 1,407 more rows
…
Observations:

Interestingly, there are more values that repeat than do occur only once. There are also a large number of NULL entries. The description feature is likely a description of the product being manufactured, but it is not fully clear.

Questions:

Need further clarification.

Group 2 Detail

Note: All time related features will be analyzed in its own section. Again Group 2 features have between 10 and 100 unique values.

Feature 08 | cust_num

## # A tibble: 52 x 2
##    cust_num     n
##    <chr>    <int>
##  1 NULL      6936
##  2 911        915
##  3 1186       671
##  4 8775       476
##  5 1502       206
##  6 2571       184
##  7 5404       165
##  8 671        124
##  9 937         90
## 10 8818        44
## # ... with 42 more rows
…
Observations:

There are 52 unique cust_num values that are largeyl repeated, “NULL” being the most common. Second most common is 911. The feature being called cust_num in conjunction with the 52 unique and repeated values may indicate a unique identifier for a specific customer. Alternatively, it could indicate a specific type of order.

Questions:

Does cust_num represent a particular customer? Or type of product? or other?

Why are some cust_num high in frequency, while others are lower?

Feature 11 | ord_line

## # A tibble: 55 x 2
##    ord_line     n
##    <chr>    <int>
##  1 0         5592
##  2 1         2091
##  3 NULL      1335
##  4 2          249
##  5 3          162
##  6 4          117
##  7 5           75
##  8 6           63
##  9 7           57
## 10 8           43
## # ... with 45 more rows
…
Observations:

Almost all values of ref_job are NULL, only 15 non-NULL values exist. Similar to root_job, this seems to be an extention to job, root_job pyramid. Need to consider value of this feature with such a small amount of unique values.

Questions:

Need further clarification.

Feature 35 | revision

## # A tibble: 59 x 4
##    revision     n total percent
##    <chr>    <int> <int> <chr>  
##  1 NULL      9905 10000 100%   
##  2 71015        6 10000 0%     
##  3 A 110316     6 10000 0%     
##  4 50616        4 10000 0%     
##  5 I            4 10000 0%     
##  6 11215        3 10000 0%     
##  7 770          3 10000 0%     
##  8 K            3 10000 0%     
##  9 N            3 10000 0%     
## 10 ""           2 10000 0%     
## # ... with 49 more rows
…
Observations:

Same

Questions:

Need further clarification.

Feature 90 | CreatedBy

## # A tibble: 26 x 2
##    CreatedBy      n
##    <chr>      <int>
##  1 csamuelson  4467
##  2 rguzzardo   1789
##  3 mdevlieger   948
##  4 jbullock     897
##  5 plindstrom   375
##  6 gwearsch     256
##  7 sa           223
##  8 bryan        215
##  9 jday         209
## 10 kbenedict    177
## # ... with 16 more rows
…
